<?xml version="1.0" encoding="UTF-8"?>
<testng-results ignored="0" total="2" passed="2" failed="0" skipped="0">
  <reporter-output>
  </reporter-output>
  <suite started-at="2023-03-06T20:24:35 CET" name="Suite" finished-at="2023-03-06T20:25:02 CET" duration-ms="26544">
    <groups>
    </groups>
    <test started-at="2023-03-06T20:24:35 CET" name="Test add  and remove item from basket" finished-at="2023-03-06T20:24:55 CET" duration-ms="19259">
      <class name="AddRemoveItemBasketTest">
        <test-method is-config="true" signature="setUp()[pri:0, instance:AddRemoveItemBasketTest@1fa268de]" started-at="2023-03-06T20:24:36 CET" name="setUp" finished-at="2023-03-06T20:24:43 CET" duration-ms="6874" status="PASS">
          <reporter-output>
          </reporter-output>
        </test-method> <!-- setUp -->
        <test-method signature="addRemoveItem()[pri:0, instance:AddRemoveItemBasketTest@1fa268de]" started-at="2023-03-06T20:24:43 CET" name="addRemoveItem" finished-at="2023-03-06T20:24:54 CET" duration-ms="11270" status="PASS">
          <reporter-output>
          </reporter-output>
        </test-method> <!-- addRemoveItem -->
        <test-method is-config="true" signature="tearDown()[pri:0, instance:AddRemoveItemBasketTest@1fa268de]" started-at="2023-03-06T20:24:54 CET" name="tearDown" finished-at="2023-03-06T20:24:55 CET" duration-ms="617" status="PASS">
          <reporter-output>
          </reporter-output>
        </test-method> <!-- tearDown -->
      </class> <!-- AddRemoveItemBasketTest -->
    </test> <!-- Test add  and remove item from basket -->
    <test started-at="2023-03-06T20:24:35 CET" name="Test order complete " finished-at="2023-03-06T20:25:02 CET" duration-ms="26544">
      <class name="OrderCompleteTest">
        <test-method is-config="true" signature="setUp()[pri:0, instance:OrderCompleteTest@61df66b6]" started-at="2023-03-06T20:24:36 CET" name="setUp" finished-at="2023-03-06T20:24:43 CET" duration-ms="6670" status="PASS">
          <reporter-output>
          </reporter-output>
        </test-method> <!-- setUp -->
        <test-method signature="endToEndTest()[pri:0, instance:OrderCompleteTest@61df66b6]" started-at="2023-03-06T20:24:43 CET" name="endToEndTest" finished-at="2023-03-06T20:25:01 CET" duration-ms="18104" status="PASS">
          <reporter-output>
          </reporter-output>
        </test-method> <!-- endToEndTest -->
        <test-method is-config="true" signature="tearDown()[pri:0, instance:OrderCompleteTest@61df66b6]" started-at="2023-03-06T20:25:01 CET" name="tearDown" finished-at="2023-03-06T20:25:02 CET" duration-ms="1224" status="PASS">
          <reporter-output>
          </reporter-output>
        </test-method> <!-- tearDown -->
      </class> <!-- OrderCompleteTest -->
    </test> <!-- Test order complete  -->
  </suite> <!-- Suite -->
</testng-results>
